<?xml version="1.0" encoding="utf-8"?>
<!-- Generator: Adobe Illustrator 19.1.1, SVG Export Plug-In . SVG Version: 6.00 Build 0)  -->
<svg version="1.1" id="Calque_1" xmlns="http://www.w3.org/2000/svg" xmlns:xlink="http://www.w3.org/1999/xlink" x="0px" y="0px"
	 viewBox="0 0 249.7 235" style="enable-background:new 0 0 249.7 235;" xml:space="preserve">
<style type="text/css">
	.st0{fill:#FFFFFF;}
</style>
<g>
	<path class="st0" d="M155.7,120.5c10.6-9,16.9-22.2,16.9-36.5c0-26.3-21.4-47.8-47.8-47.8S77.1,57.7,77.1,84
		c0,14.3,6.3,27.5,16.9,36.5c-15.6,7.1-28.5,19.5-36.2,35.1c-1.2,2.5-0.2,5.5,2.3,6.7c0.7,0.4,1.5,0.5,2.2,0.5c1.8,0,3.6-1,4.5-2.8
		c7.9-16.1,22.3-28.3,39.5-33.4c1.9-0.6,3.3-2.3,3.5-4.3s-0.8-4-2.6-4.9C94.8,110.7,87.1,98,87.1,84c0-20.8,16.9-37.8,37.8-37.8
		c20.8,0,37.8,16.9,37.8,37.8c0,14-7.7,26.8-20.1,33.3c-1.8,1-2.8,2.9-2.6,4.9s1.6,3.7,3.5,4.3c17.1,5.1,31.5,17.3,39.5,33.4
		c1.2,2.5,4.2,3.5,6.7,2.3c2.5-1.2,3.5-4.2,2.3-6.7C184.2,139.9,171.3,127.5,155.7,120.5z"/>
	<path class="st0" d="M232.8,1.8h-216c-8.3,0-15,6.7-15,15v165.4c0,8.3,6.7,15,15,15h132.8l54.8,35.2c0.8,0.5,1.8,0.8,2.7,0.8
		c0.8,0,1.6-0.2,2.4-0.6c1.6-0.9,2.6-2.6,2.6-4.4v-31h20.8c8.3,0,15-6.7,15-15V16.8C247.8,8.5,241.1,1.8,232.8,1.8z M237.8,182.2
		c0,2.8-2.2,5-5,5h-25.8c-2.8,0-5,2.2-5,5V219l-48.3-31c-0.8-0.5-1.7-0.8-2.7-0.8H16.8c-2.8,0-5-2.2-5-5V16.8c0-2.8,2.2-5,5-5h216
		c2.8,0,5,2.2,5,5V182.2z"/>
</g>
</svg>
